{
  "production": {
    "consumer_key": "ng7OmUeDPewBlFnE8Du5D2Xu9",
    "consumer_secret": "7vWYHgHlR5sEbeDQqnDatrqtdBiorjimwCvzyDvjGiDjKMoGHA",
    "access_token_key": "2786101362-tiVRdWN5nlPn9M4ruXHRdPIbH19ObIr260XFpt5",
    "access_token_secret": "6LZnYEl4QjpeiIiid81ZP6MTbvMHZx05jqGeknH2LARce"
  },
  "development": {
    "consumer_key": "v0AyFiYDCzHcRUTg3VjFTXkLN",
    "consumer_secret": "8imzSJJPzKVcNH9JkggHAHJn6fLgydWpwlo4eHTqYqNMHD6YfN",
    "access_token_key": "2786447936-Lilbpo36tg49Xz8rOkHGkreCM8AsW6xAPnahmnt",
    "access_token_secret": "d3R63kLxITd9y2undmkQ3VwyGhqZQpOwkszKqRk1MoHsn"
  }
}
